{
    "USD": {
        "balance": 100,
        "name": "United State Dollar",
        "symbol": "$"
    },
    "GBP": {
        "balance": 200,
        "name": "Pound Sterling",
        "symbol": "£"
    },
    "CAD": {
        "balance": 300,
        "name": "Canadian Dollar",
        "symbol": "$"
    },
    "CHF": {
        "balance": 500,
        "name": "Swiss Franc",
        "symbol": "CHF"
    },
    "HKD": {
        "balance": 600,
        "name": "Hong Kong Dollar",
        "symbol": "$"
    },
    "PHP": {
        "balance": 100,
        "name": "Philippine Peso",
        "symbol": "₱"
    },
    "DKK": {
        "balance": 100,
        "name": "Danish Krone",
        "symbol": "kr"
    },
    "HUF": {
        "balance": 100,
        "name": "Hungarian Forint",
        "symbol": "Ft"
    },
    "CZK": {
        "balance": 100,
        "name": "Czech Koruna",
        "symbol": "Kč"
    },
    "AUD": {
        "balance": 100,
        "name": "Australian Dollar",
        "symbol": "$"
    },
    "RON": {
        "balance": 100,
        "name": "Romanian leu ",
        "symbol": "lei"
    },
    "SEK": {
        "balance": 100,
        "name": "Swedish krona",
        "symbol": "kr"
    },
    "IDR": {
        "balance": 100,
        "name": "Indonesian Rupiah",
        "symbol": "Rp"
    },
    "INR": {
        "balance": 100,
        "name": "Indian Rupee",
        "symbol": "₹"
    },
    "BRL": {
        "balance": 100,
        "name": "Brazilian Real",
        "symbol": "R$"
    },
    "RUB": {
        "balance": 100,
        "name": "Russian Rouble",
        "symbol": "₽"
    },
    "JPY": {
        "balance": 0,
        "name": "Japanese Yen",
        "symbol": "¥"
    },
    "THB": {
        "balance": 100,
        "name": "Thai Baht",
        "symbol": "฿"
    },
    "SGD": {
        "balance": 100,
        "name": "Singapore Dollar",
        "symbol": "$"
    },
    "PLN": {
        "balance": 100,
        "name": "Polish Zloty",
        "symbol": "zł"
    },
    "BGN": {
        "balance": 100,
        "name": "Bulgarian Lev",
        "symbol": "лв"
    },
    "CNY": {
        "balance": 100,
        "name": "Chinese Yuan Renminbi",
        "symbol": "¥"
    },
    "NZD": {
        "balance": 100,
        "name": "New Zealand Dollar",
        "symbol": "$"
    },
    "ZAR": {
        "balance": 100,
        "name": "South African Rand",
        "symbol": "R"
    },
    "MXN": {
        "balance": 100,
        "name": "Mexican Peso",
        "symbol": "$"
    },
    "KRW": {
        "balance": 100,
        "name": "South Korean Won",
        "symbol": "₩"
    },
    "MYR": {
        "balance": 100,
        "name": "Malaysian Ringgit",
        "symbol": "RM"
    }
}